{
	"y_3": {
		"x_shared": [
			[
				0.0,
				3.224819119999993e-6,
				0.04351374841045419,
				0.0,
				0.0,
				0.0
			],
			[
				90712.45296311346,
				-0.32029730771712506,
				8351.830029939747,
				0.7417970014995713,
				-102.05376475052874,
				6.674865131598426
			],
			[
				6.825824083033441,
				-2.4101355495648877e-5,
				0.6284486935762383,
				5.581786923584456e-5,
				-0.007679221787571419,
				0.0005022624091621846
			]
		],
		"x_2": [
			[
				0.0
			],
			[
				832.3258651213956
			],
			[
				0.06262987880382273
			]
		],
		"x_3": [
			[
				0.17541115841822139
			],
			[
				-13773.478354889692
			],
			[
				-1.0364105168688964
			]
		],
		"x_1": [
			[
				0.0,
				0.0
			],
			[
				2.8539878925491937,
				30.228737462552612
			],
			[
				0.0002147535278047178,
				0.0022746165210138186
			]
		]
	},
	"y_4": {
		"x_shared": [
			[
				1046.9495463920302,
				0.024443073003378696,
				-364.22011543400936,
				-38.94659024162916,
				7.986837457818224,
				0.0728133685732022
			]
		],
		"x_2": [
			[
				-67.57180551995178
			]
		],
		"x_3": [
			[
				-70.53378424021197
			]
		],
		"x_1": [
			[
				-1.1891858261529134,
				-77.25775349882474
			]
		]
	},
	"g_1": {
		"x_shared": [
			[
				-19.962499999999995,
				0.0,
				0.0,
				0.0454545454545455,
				0.0,
				0.0002500000000000002
			],
			[
				-12.205555555555552,
				0.0,
				0.0,
				0.030303030303030328,
				0.0,
				0.0001666666666666668
			],
			[
				-8.740625,
				0.0,
				0.0,
				0.02272727272727275,
				0.0,
				0.0001250000000000001
			],
			[
				-6.7940000000000005,
				0.0,
				0.0,
				0.0181818181818182,
				0.0,
				0.00010000000000000009
			],
			[
				-5.551388888888889,
				0.0,
				0.0,
				0.015151515151515164,
				0.0,
				8.33333333333334e-5
			],
			[
				0.0,
				0.0,
				0.0,
				-0.03403181818181818,
				0.0,
				-0.00018717499999999998
			],
			[
				0.0,
				0.0,
				0.0,
				0.03403181818181818,
				0.0,
				0.00018717499999999998
			]
		],
		"x_2": [
			[
				0.0
			],
			[
				0.0
			],
			[
				0.0
			],
			[
				0.0
			],
			[
				0.0
			],
			[
				0.0
			],
			[
				0.0
			]
		],
		"x_3": [
			[
				0.0
			],
			[
				0.0
			],
			[
				0.0
			],
			[
				0.0
			],
			[
				0.0
			],
			[
				0.0
			],
			[
				0.0
			]
		],
		"x_1": [
			[
				0.2666666666666669,
				-0.7500000000000001
			],
			[
				0.17777777777777792,
				-0.5
			],
			[
				0.13333333333333344,
				-0.37500000000000006
			],
			[
				0.10666666666666676,
				-0.30000000000000004
			],
			[
				0.08888888888888896,
				-0.25
			],
			[
				-0.179504,
				0.39230000000000037
			],
			[
				0.179504,
				-0.39230000000000037
			]
		]
	},
	"y_2": {
		"x_shared": [
			[
				116595.78482355886,
				-0.3687882558430093,
				9616.243270327275,
				695.9027241241812,
				225.35305455357894,
				27.15222965457168
			],
			[
				165546.02890340157,
				-0.5845277647004224,
				15241.703320435134,
				1.3537452007900201,
				-186.24339809178974,
				12.181319983169557
			],
			[
				-46.7773899075369,
				0.00016868471476394578,
				-4.398494874648042,
				0.056606651101951434,
				0.08186258485084061,
				-0.0019189469748476184
			]
		],
		"x_2": [
			[
				958.3346369000138
			],
			[
				1518.956187641232
			],
			[
				-0.4383447745762941
			]
		],
		"x_3": [
			[
				-15858.694210059473
			],
			[
				-11.936494809659308
			],
			[
				-1.2964267017460722
			]
		],
		"x_1": [
			[
				1103.6910522834924,
				86003.94494048637
			],
			[
				5.208395834499641,
				55.16604702245535
			],
			[
				0.08873542984771522,
				7.033961569134155
			]
		]
	},
	"y_1": {
		"x_shared": [
			[
				116595.7848235589,
				-0.3687882558430093,
				9616.243270327268,
				695.9027241241812,
				225.3530545535793,
				27.15222965457168
			],
			[
				106124.05242476954,
				0.0,
				0.0,
				-482.3820564762253,
				0.0,
				7.9593039318577175
			],
			[
				0.0,
				0.0,
				0.0,
				-0.03403181818181818,
				0.0,
				-0.00018717499999999998
			]
		],
		"x_2": [
			[
				958.3346369000145
			],
			[
				0.0
			],
			[
				0.0
			]
		],
		"x_3": [
			[
				-15858.69421005947
			],
			[
				0.0
			],
			[
				0.0
			]
		],
		"x_1": [
			[
				1103.6910522834914,
				86003.94494048634
			],
			[
				0.0,
				0.0
			],
			[
				-0.179504,
				0.39230000000000037
			]
		]
	},
	"g_2": {
		"x_shared": [
			[
				4.0000000000000036,
				0.0,
				0.0,
				0.0,
				0.0,
				0.0
			]
		],
		"x_2": [
			[
				0.0
			]
		],
		"x_3": [
			[
				0.0
			]
		],
		"x_1": [
			[
				0.0,
				0.0
			]
		]
	},
	"g_3": {
		"x_shared": [
			[
				6.825824083033441,
				-2.4101355495648877e-5,
				0.6284486935762383,
				5.581786923584456e-5,
				-0.007679221787571419,
				0.0005022624091621846
			],
			[
				-6.825824083033441,
				2.4101355495648877e-5,
				-0.6284486935762383,
				-5.581786923584456e-5,
				0.007679221787571419,
				-0.0005022624091621846
			],
			[
				0.0,
				6.0146380878369096e-5,
				-1.3196753868078344,
				0.0,
				0.0,
				0.0
			],
			[
				0.0,
				-6.666666666666668e-6,
				0.18750000000000017,
				0.0,
				0.0,
				0.0
			]
		],
		"x_2": [
			[
				0.06262987880382273
			],
			[
				-0.06262987880382273
			],
			[
				0.0
			],
			[
				0.0
			]
		],
		"x_3": [
			[
				-1.0364105168688964
			],
			[
				1.0364105168688964
			],
			[
				2.3241206467198516
			],
			[
				0.6000000000000005
			]
		],
		"x_1": [
			[
				0.0002147535278047178,
				0.0022746165210138186
			],
			[
				-0.0002147535278047178,
				-0.0022746165210138186
			],
			[
				0.0,
				0.0
			],
			[
				0.0,
				0.0
			]
		]
	}
}
